	7985.126465	9.908000	67125
	8452.580078	7.930000	54173
	8018.144043	9.512000	63905
	7785.632324	19.811001	114210
	7735.801758	19.740000	114326
	7816.416992	5.997000	47151
	8131.154785	8.836000	61759
	7924.431641	7.686000	55943
	8428.607422	11.598000	72933
	8070.145508	5.180000	42294
