	27214.123047	0.123000
	26784.916016	0.118000
	27758.902344	0.117000
	27492.132812	0.125000
	25648.316406	0.117000
	26266.273438	0.120000
	27385.447266	0.117000
	28243.037109	0.125000
	28540.548828	0.117000
	27063.101562	0.118000
