	21429.486328	135.548004	641135
	22266.833984	186.535004	944635
	21568.400391	138.988998	760083
	22100.958984	103.471001	571294
	21452.707031	155.940994	848870
	23055.138672	160.817001	876403
	22499.753906	96.657997	535262
	22253.183594	110.166000	605621
	23301.726562	171.973007	933340
	22252.781250	176.412994	959432
