	25821.369141	45.362999	1272	1574371
	25751.058594	38.555000	1399	1360171
	28646.234375	49.698002	1564	1767151
	28469.531250	39.631001	1694	1392301
	32030.257812	43.863998	1839	1552951
	26196.441406	38.528999	1966	1360171
	28535.271484	41.816002	2104	1477981
	30429.912109	37.021999	2225	1295911
	31303.089844	33.339001	2334	1167391
	33492.187500	36.256001	2453	1274491
