	18132.667969	0.135000
	18210.078125	0.153000
	16939.441406	0.138000
	19667.658203	0.148000
	20073.927734	0.132000
	19823.640625	0.131000
	19962.914062	0.134000
	19378.658203	0.142000
	17648.099609	0.147000
	19738.929688	0.130000
