	1314.968750	7.991000	725	286091
	1000.537781	11.377000	802	361131
	1219.661987	11.081000	876	347061
	1068.432861	8.911000	944	318921
	1023.360474	10.404000	1014	328301
	927.939880	9.875000	1086	337681
	1065.653931	12.161000	1175	417411
	1005.478516	11.326000	1253	365821
	1134.797729	10.336000	1317	300161
	1092.053955	13.188000	1383	309541
