	5381.665527	789.799011	167994961	16428
	6253.470703	1552.076050	163884281	18541
	6055.892090	1539.303955	152017601	20501
	5873.396973	1814.322021	167607161	22662
	6392.766113	1334.963989	163806721	24774
	5095.791504	2491.423096	177379721	27061
	5276.282227	1199.129028	163263801	29166
	5208.902344	1573.162964	168227641	31335
	5285.345703	8238.272461	2576543201	64555
	5427.363281	846.101013	157059001	66580
