	8501.701172	9.971000	41608
	8087.634277	13.194000	46032
	8162.232910	9.906000	38516
	7969.134766	9.210000	43538
	8287.442383	8.779000	43090
	8229.756836	9.594000	43702
	8444.069336	9.940000	36636
	8186.245605	10.951000	47142
	8438.973633	9.566000	36566
	8006.030762	11.673000	47012
