	11269.156250	481.733002	2022129
	11828.203125	315.847992	1370257
	12597.373047	426.183014	1836592
	10550.640625	474.604004	2042066
	11347.426758	501.977997	2158115
	13129.827148	431.053986	1854420
	10378.291016	549.382996	2361447
	11118.283203	426.950012	1837750
	12498.518555	411.087006	1769175
	12700.421875	283.091003	1224740
