	11001.845703	76.700996	17441551	7263
	12678.040039	52.594002	16515451	8012
	13016.615234	53.750000	15390901	8710
	11424.184570	80.129997	19448101	9592
	11154.392578	132.878006	18566101	10434
	12595.815430	49.058998	17199001	11214
	13117.256836	83.063004	17706151	12017
	12914.160156	52.866001	17132851	12794
	12138.121094	79.175003	20043451	13703
	12695.242188	66.211998	17110801	14479
