	12213.631836	293.878998	569822
	13979.332031	312.126007	456733
	12354.716797	296.622986	507620
	11884.476562	275.178009	355037
	13468.904297	242.102997	430145
	12793.193359	264.981995	367910
	10882.661133	268.229004	542761
	13081.229492	255.373001	453550
	12703.007812	264.623993	395911
	13034.147461	261.864990	479570
