	666.761841	108.223000	599724
	687.307922	127.282997	701625
	689.182922	159.143997	868673
	667.908142	171.095001	930909
	685.456421	111.903000	620464
	670.051880	137.119003	754125
	668.941345	166.884995	911164
	683.078918	108.512001	600790
	671.535156	131.365997	722689
	664.839722	116.151001	643727
