	679.156799	17.379000	431139	366
	677.209717	32.970001	807515	795
	678.980591	26.106001	628829	1173
	684.092590	26.443001	634969	1601
	676.676636	26.452999	635069	1946
	699.126282	18.274000	456094	2286
	689.676331	21.681999	507154	2647
	677.560242	21.021000	502604	3017
	690.861328	27.077999	677972	3372
	703.792480	23.582001	559445	3769
