	746.385132	0.128000
	821.666077	0.120000
	746.360596	0.119000
	816.234253	0.118000
	760.492554	0.116000
	801.562988	0.117000
	748.884766	0.115000
	822.343628	0.119000
	772.491272	0.120000
	819.597961	0.118000
