	22955.966797	26.296000	628511	388
	22157.984375	40.014000	955217	772
	22972.083984	35.817001	867680	1165
	22464.730469	29.336000	705264	1562
	22310.007812	33.604000	810658	1958
	22129.349609	21.169001	518535	2347
	22788.900391	24.483000	574699	2735
	22242.937500	37.161999	894861	3084
	23165.062500	26.426001	626536	3495
	22202.447266	35.944000	868274	3919
