	46457.820312	85.950996	131035
	39896.175781	85.526001	143711
	44503.003906	59.487999	127351
	41157.027344	82.464996	124467
	44011.269531	71.608002	158337
	43122.937500	70.379997	152271
	48588.554688	89.571999	172541
	42010.789062	78.377998	158194
	44146.730469	87.196999	177654
	40926.984375	72.008003	151859
