	21959.773438	41.237999	102	989401
	21832.025391	41.772999	205	999101
	21356.650391	43.136002	314	1057301
	22813.103516	37.768002	409	921501
	21447.611328	42.855999	517	1047601
	22052.974609	41.196999	620	999101
	21521.851562	40.928001	723	999101
	22635.771484	40.708000	826	999101
	21421.294922	43.761002	937	1076701
	22976.523438	43.698002	1047	1067001
