	126287.226562	2286.933105	770718937	48003
	123794.226562	3113.170898	829706489	52279
	110217.343750	2386.660889	719104829	55985
	122130.062500	1911.253052	739478819	59796
	123072.406250	3259.365967	777122191	63801
	126173.445312	2988.768066	883066939	68352
	134643.328125	2576.533936	823497273	72596
	115598.796875	2090.756104	780808913	76620
	121070.531250	3488.684082	801376941	80750
	123939.148438	2174.004883	708820815	84403
