	171404.484375	30.978001	360621	792
	158101.687500	33.730000	393909	863
	159401.812500	36.436001	432745	941
	186099.421875	33.284000	393909	1012
	180551.687500	33.771999	399457	1084
	173307.265625	32.493999	382813	1153
	154224.937500	35.661999	421649	1229
	176602.562500	38.230000	454937	1311
	146248.578125	43.528000	521513	1405
	172877.515625	39.807999	471581	1490
