	193800.718750	35.544998	81083
	193363.828125	46.321999	76858
	177399.187500	41.368000	77804
	161777.453125	33.699001	64275
	186506.203125	35.790001	80943
	174773.281250	35.646999	96481
	174012.531250	35.076000	62959
	189426.671875	48.775002	97500
	191187.937500	27.403999	49015
	158048.687500	36.370998	91523
