	112892.843750	25.476999	107996
	111504.929688	29.318001	158080
	115508.015625	26.014999	113366
	114406.929688	36.827000	147094
	113076.687500	35.525002	156292
	125385.562500	29.097000	131274
	111554.179688	43.959999	162100
	111639.250000	35.414001	140016
	110727.148438	33.901001	160714
	111174.851562	33.858002	145184
