	1062.679932	23.934999	59820
	1127.785278	38.506001	73146
	1117.466797	27.377001	53094
	1123.854370	33.889000	79528
	1134.468628	24.469999	69202
	1093.127808	24.639000	51679
	1064.938477	29.830999	63814
	1045.077393	33.258999	87550
	1283.688721	24.997999	46270
	1239.649170	20.620001	57708
