	3105.329590	3.803000
	3047.547607	3.804000
	2923.830078	3.803000
	3088.680664	3.802000
	2998.007324	3.804000
	3117.959961	3.806000
	3079.870361	3.802000
	2975.681641	3.799000
	3071.232910	3.802000
	3016.075684	3.800000
