	8382.281250
	8566.833984
	9189.995117
	8840.389648
	8857.878906
	8717.995117
	9100.382812
	8858.148438
	8951.841797
	8375.998047
	8612.156250
	8821.120117
	8776.041016
	9085.405273
	8759.957031
	8250.131836
	8339.873047
	8638.308594
	9168.134766
	8644.859375
	8843.350586
	8469.452148
	8313.904297
	9119.858398
	8509.250977
	8464.038086
	8787.193359
	8999.672852
	8371.245117
	8252.945312
	8340.668945
	8585.279297
	8744.837891
	8604.045898
	8527.270508
	9406.262695
	9283.856445
	8486.809570
	9463.336914
	8824.976562
	9288.234375
	8689.521484
	8886.617188
	8571.747070
	8304.828125
	8888.644531
	8496.854492
	8709.913086
	8538.258789
	9044.048828
	8711.876953
	8477.721680
	8261.876953
	8483.164062
	8900.650391
	8902.163086
	8421.511719
	8659.703125
	9208.975586
	8529.204102
	8589.632812
	8653.561523
	8810.544922
	9321.319336
	8395.182617
	8791.762695
	9259.200195
	8495.481445
	8716.257812
	8401.554688
	8694.014648
	9282.898438
	8304.635742
	9220.048828
	9584.407227
	8764.410156
	8714.569336
	7818.045410
	8271.105469
	8599.417969
	8955.148438
	9091.203125
	8446.566406
	8468.256836
	8777.005859
	8891.025391
	8885.122070
	8918.609375
	9069.776367
	7824.234863
	8407.703125
	8633.039062
	8337.852539
	8462.760742
	8675.037109
	9135.166016
	9026.305664
	8380.213867
	9141.934570
	8608.300781
	8507.778320
	8591.440430
	9063.256836
	8799.187500
	8770.200195
	9111.766602
	9372.013672
	8544.930664
	8658.287109
	8627.283203
	9151.096680
	8523.821289
	8133.388184
	8609.807617
	8948.366211
	9104.273438
	8301.866211
	8599.844727
	9009.425781
	8853.825195
	8908.840820
	8193.720703
	8377.385742
	8929.180664
	8627.068359
	8504.170898
	8014.025391
	8205.248047
	8203.338867
	8742.750000
	8833.419922
	9026.059570
	8377.439453
	8854.035156
	8520.080078
	9145.081055
	7983.049316
	9074.290039
	8425.990234
	8756.990234
	8676.912109
	8405.157227
	8571.497070
	8655.909180
	8372.022461
	8642.873047
	8677.139648
	8807.753906
	9007.234375
	8750.281250
	8981.834961
	8881.028320
	9159.156250
	8516.703125
	8747.566406
	7973.820801
	9009.457031
	8682.235352
	8791.618164
	8423.261719
	8525.882812
	9107.557617
	8966.197266
	8154.392578
	8483.287109
	9014.965820
	8658.484375
	8746.940430
	9040.711914
	9196.149414
	8473.992188
	8709.890625
	8428.200195
	8602.560547
	9351.535156
	9124.274414
	9202.552734
	8984.291992
	8300.962891
	9109.608398
	9464.626953
	9040.055664
	8327.496094
	8653.513672
	8996.198242
	8701.292969
	8665.940430
	8537.260742
	8770.671875
	9376.842773
	9008.861328
	9040.128906
	9153.938477
	9249.240234
	8543.723633
	8598.701172
	8710.156250
	8222.673828
	8619.542969
	8564.182617
	8996.414062
	9001.507812
	8506.744141
	8389.377930
	8228.033203
	9584.247070
	8703.384766
	8323.744141
	8361.250000
	8207.912109
	8845.703125
	9231.627930
	8720.733398
	8358.185547
	9116.692383
	8684.916992
	8782.817383
	8788.947266
	8967.594727
	8185.945312
	8777.913086
	8858.725586
	8362.921875
	8876.508789
	8647.574219
	8951.262695
	8718.421875
	8187.423828
	8567.472656
	8199.428711
	8945.624023
	8930.323242
	8593.885742
	8835.713867
	8270.281250
	8675.021484
	9079.676758
	8694.424805
	8278.435547
	8810.940430
	8902.282227
	8892.815430
	8845.219727
	9001.575195
	9381.221680
	9111.388672
	8326.517578
	8699.343750
	8617.125000
	8689.748047
	8645.634766
	8874.124023
	8597.184570
	8725.831055
	9317.057617
	8209.777344
	9334.311523
	8959.059570
	9073.156250
	7802.178711
	8977.903320
	8519.916016
	8645.765625
	8391.794922
	8363.887695
	9277.508789
	9461.933594
	8563.140625
	9169.532227
	9399.873047
	8925.106445
	8611.139648
	8523.474609
	9242.238281
	8369.246094
	8899.649414
	8689.083008
	9273.433594
	8701.108398
	8789.979492
	9051.714844
	8631.513672
	8932.009766
	8365.540039
	9284.144531
	9404.386719
	8789.780273
	8442.718750
	8672.427734
	8802.943359
	9013.614258
	8314.456055
	8722.711914
	8203.065430
	8312.309570
	8626.470703
	8319.032227
	8064.753418
	8942.351562
	8473.362305
