	11676.471680	48585.789062
	11712.737305	55152.398438
	11945.166992	52853.363281
	11404.855469	53569.375000
	12682.795898	55007.703125
	11477.991211	53966.910156
	12480.148438	54926.289062
	10415.087891	54331.015625
	11228.350586	53253.945312
	12616.961914	53541.222656
	10216.776367	54050.417969
	10878.221680	53635.464844
	11732.463867	55299.363281
	13013.849609	52000.785156
	11189.663086	55759.125000
	11941.309570	55571.640625
	10591.766602	54591.058594
	10179.420898	54164.222656
	11375.291992	57292.101562
	13550.902344	54451.113281
	11396.707031	56287.250000
	11344.633789	55044.371094
	12415.273438	54483.023438
	12216.968750	53572.980469
	10530.584961	57052.765625
	11632.482422	52485.128906
	11335.458008	54588.605469
	11947.629883	51274.605469
	11062.496094	54438.613281
	11109.275391	54125.710938
	12731.708008	52454.328125
	12332.166016	55876.921875
	11589.786133	53026.910156
	11134.226562	52090.152344
	11596.075195	55400.972656
	12611.162109	55190.636719
	10330.482422	54091.617188
	11334.678711	54235.652344
	11745.048828	53426.261719
	10381.939453	55833.613281
	10741.618164	55332.992188
	12834.719727	55363.968750
	11643.336914	51788.964844
	11838.406250	53349.765625
	10182.463867	53381.964844
	10649.900391	55629.289062
	10873.420898	53737.972656
	12218.338867	51502.171875
	12973.340820	55386.210938
	11275.974609	49394.402344
	11628.029297	56481.097656
	11668.642578	52552.617188
	11333.697266	52103.878906
	9912.755859	52946.828125
	11075.683594	54405.523438
	10997.901367	58327.261719
	12387.355469	52288.984375
	10741.833008	51845.996094
	11649.207031	54235.011719
	12094.295898	52428.179688
	10700.358398	54566.214844
	11312.783203	56797.894531
	9718.978516	52228.949219
	11671.024414	53862.804688
	11191.463867	56810.914062
	11435.690430	54063.843750
	12077.176758	54604.066406
	10829.128906	52556.054688
	11433.109375	57450.156250
	10165.718750	51443.113281
	12388.364258	54229.984375
	12480.142578	57019.832031
	12679.169922	50395.691406
	11515.707031	54965.468750
	11421.299805	53247.652344
	12316.512695	55094.613281
	13206.089844	56162.441406
	11679.891602	53758.300781
	11088.072266	52310.589844
	11111.364258	56161.878906
	12467.667969	54972.410156
	11781.763672	52913.156250
	11341.400391	57505.488281
	12366.878906	56194.480469
	12871.396484	53175.851562
	11022.666016	53813.109375
	11725.868164	58428.707031
	11555.464844	54740.851562
	9975.506836	52496.867188
	11228.946289	55538.468750
	10385.621094	55952.363281
	12205.289062	51101.968750
	11825.852539	53134.449219
	11425.327148	56119.281250
	11484.809570	49607.687500
	12989.949219	51191.515625
	10249.269531	55475.199219
	11424.637695	53105.566406
	12004.996094	51933.414062
	11995.451172	52104.960938
	11287.241211	53432.238281
	11432.598633	51623.257812
	11938.503906	51681.996094
	13636.412109	53261.515625
	11851.745117	53515.921875
	10166.508789	51066.617188
	13171.203125	54172.031250
	13187.112305	56469.957031
	12355.395508	52358.519531
	12376.812500	53503.726562
	11200.973633	54176.070312
	11251.043945	55230.507812
	11751.770508	55569.964844
	10761.940430	55745.093750
	12558.341797	53609.171875
	12033.942383	55683.195312
	13204.936523	52200.414062
	12788.369141	55156.894531
	11298.234375	54258.257812
	11070.611328	53093.773438
	10923.571289	53435.308594
	11275.527344	52643.214844
	11198.432617	52732.542969
	11710.681641	51197.257812
	11208.148438	52888.171875
	11273.468750	53333.292969
	12428.265625	55347.269531
	11783.919922	55732.046875
	9634.676758	51284.746094
	11116.562500	53314.738281
	10777.361328	52585.265625
	12231.424805	52306.601562
	12463.224609	54795.855469
	10947.122070	54795.851562
	10586.628906	53979.230469
	11134.844727	52588.246094
	11480.400391	54114.574219
	13098.029297	53631.445312
	10772.250977	55423.851562
	11436.394531	53713.429688
	11639.472656	53917.105469
	11847.356445	53947.253906
	11099.471680	55146.695312
	12255.237305	55884.636719
	12447.662109	55933.007812
	11466.218750	50030.292969
	11724.799805	52108.843750
	12286.304688	57978.757812
	13024.958008	50724.535156
	11040.121094	53737.761719
	12011.577148	52069.320312
	11896.235352	51713.492188
	11228.838867	54424.441406
	10583.776367	53767.996094
	11514.105469	54742.441406
	12311.728516	54466.660156
	12029.076172	52042.355469
	11041.835938	54258.937500
	12647.304688	52337.480469
	11401.239258	53460.761719
	11760.937500	50632.738281
	11203.372070	52439.277344
	11554.603516	53305.781250
	11261.284180	53587.769531
	11359.795898	52232.972656
	11815.204102	54100.128906
	12583.440430	54299.652344
	11522.071289	53850.039062
	11453.184570	54183.484375
	12379.692383	54949.332031
	12409.686523	52508.019531
	13302.826172	54436.671875
	12090.128906	53240.152344
	11181.547852	52355.648438
	11052.405273	54941.015625
	12047.861328	53256.140625
	12616.944336	51440.121094
	13481.861328	52003.332031
	12323.464844	55942.433594
	11271.489258	53439.707031
	10841.022461	50827.058594
	10541.047852	53328.738281
	11517.732422	53650.441406
	12300.753906	52119.496094
	12449.418945	52193.191406
	10825.767578	53319.746094
	12070.995117	48931.496094
	11527.991211	52079.617188
	11203.592773	55815.503906
	11141.986328	53938.152344
	12105.654297	52031.117188
	11394.989258	55785.949219
	12275.381836	55127.570312
	10600.097656	55278.210938
	11723.166992	56794.589844
	12126.235352	52759.449219
	12318.648438	51070.039062
	10704.532227	54363.984375
	12218.333008	52475.453125
	11402.086914	55094.636719
	12285.725586	56091.378906
	12130.027344	54880.859375
	11728.529297	55767.195312
	10869.084961	54184.894531
	10712.515625	54084.523438
	10843.479492	53026.324219
	12103.938477	56615.828125
	11378.138672	52216.898438
	11553.864258	53863.179688
	11684.461914	52849.957031
	10332.505859	57424.054688
	10192.208984	54179.582031
	12527.361328	53248.062500
	11888.988281	55611.648438
	12300.099609	57123.835938
	12018.772461	50687.757812
	13136.287109	55996.023438
	9814.464844	54466.156250
	12668.419922	54901.640625
	11935.321289	54804.265625
	11559.386719	54050.105469
	12582.529297	51141.570312
	10652.523438	56294.906250
	12421.715820	55198.890625
	10141.815430	53910.738281
	10764.681641	55539.425781
	12292.873047	54324.531250
	11096.173828	53981.988281
	11846.130859	57196.566406
	12556.599609	54647.687500
	11823.842773	54395.230469
	13006.220703	54865.039062
	12206.922852	54165.152344
	11357.935547	49729.644531
	13373.691406	53750.039062
	11773.698242	53548.531250
	13520.814453	55461.574219
	12583.160156	52769.542969
	12860.996094	55825.480469
	12368.432617	53993.757812
	11987.786133	53693.042969
	11731.471680	53303.070312
	13290.050781	55606.781250
	11790.470703	52548.085938
	10495.194336	52595.488281
	13218.838867	51491.140625
	11542.806641	53975.453125
	12138.731445	57544.160156
	10462.891602	54866.031250
	11710.593750	55332.011719
	11131.731445	51672.847656
	11418.166016	53831.296875
	12223.342773	52975.437500
	10916.946289	53280.300781
	11686.657227	53429.238281
	12034.634766	54546.878906
	12286.310547	54397.214844
	13261.303711	51405.988281
	11896.063477	55499.929688
	10917.116211	52783.972656
	10178.478516	56648.171875
	12533.479492	52779.128906
	12017.525391	55584.597656
	11158.965820	53128.164062
	10276.150391	54580.128906
	11016.683594	54673.722656
	12523.696289	52636.746094
	11138.067383	54350.722656
	12041.178711	57352.675781
	11793.243164	55435.867188
	12612.939453	52118.796875
	9482.932617	54565.714844
	11015.168945	53916.394531
	12155.127930	51876.203125
	11959.010742	52850.324219
	11368.256836	56028.839844
	11926.704102	55765.503906
	12126.581055	54885.296875
	10202.683594	55250.210938
	12744.233398	53304.234375
	10735.031250	52888.265625
	11802.476562	55321.777344
	11740.428711	54797.367188
	12454.056641	54688.636719
	11103.875977	56182.187500
	11066.304688	54620.789062
	11596.250000	55687.500000
	11257.382812	54251.058594
	13040.083008	53290.824219
	11995.755859	50469.847656
	11364.724609	51455.125000
	11005.054688	54869.992188
	11013.119141	54645.425781
	11735.842773	56217.031250
	11389.915039	56176.976562
	11883.153320	55975.613281
	11001.160156	54220.445312
	12290.355469	51336.375000
	12571.175781	53173.273438
	12353.541016	54401.988281
