	25183.232422
	24418.501953
	23214.763672
	22754.933594
	23692.875000
	22605.210938
	22346.824219
	24309.808594
	22426.234375
	22548.580078
	23629.923828
	22847.867188
	22704.419922
	23473.728516
	23387.957031
	23521.564453
	24139.742188
	22630.746094
	23683.986328
	23110.439453
	23146.992188
	23692.130859
	23079.376953
	24243.205078
	23568.142578
	23693.218750
	23037.851562
	23580.324219
	24170.746094
	24214.152344
	23510.474609
	24640.263672
	23415.931641
	23022.212891
	23137.113281
	23686.332031
	24229.808594
	22473.861328
	23134.425781
	24464.005859
	24910.265625
	23492.228516
	23156.052734
	22467.468750
	24843.458984
	22762.783203
	21935.462891
	24457.322266
	23557.492188
	22544.500000
	23660.744141
	22787.400391
	23922.855469
	22746.380859
	23078.742188
	24759.740234
	22742.111328
	23921.306641
	23987.083984
	23262.082031
	23645.472656
	22793.263672
	24181.626953
	23946.796875
	24056.730469
	23217.832031
	23879.798828
	23006.105469
	22353.705078
	22877.583984
	24770.171875
	23495.806641
	23136.982422
	23401.074219
	22588.925781
	22396.130859
	23288.085938
	23942.195312
	22705.132812
	22989.482422
	23858.064453
	22998.234375
	25206.433594
	23339.074219
	23273.490234
	23392.800781
	23598.980469
	24580.375000
	22810.056641
	23431.259766
	24220.472656
	22612.005859
	22640.134766
	23481.910156
	23004.960938
	24200.951172
	23011.046875
	21985.484375
	24345.205078
	23495.763672
	22055.863281
	22868.224609
	21620.261719
	22787.750000
	22753.492188
	23077.972656
	24684.591797
	24470.998047
	21877.449219
	23152.730469
	22881.748047
	22755.242188
	24861.904297
	23972.763672
	22990.705078
	23854.361328
	24096.595703
	24517.894531
	24151.794922
	22637.775391
	24496.085938
	22515.447266
	23581.742188
	24328.636719
	24058.937500
	22703.953125
	23435.904297
	22142.568359
	22997.845703
	23140.812500
	22332.039062
	23109.873047
	22208.921875
	22191.640625
	22620.345703
	23225.404297
	22708.160156
	23272.966797
	23245.460938
	25490.859375
	22371.892578
	22386.298828
	24423.162109
	23179.517578
	25306.183594
	24072.566406
	22453.542969
	24416.384766
	23528.496094
	23367.839844
	24714.351562
	24535.736328
	23103.486328
	22457.734375
	23259.015625
	23753.283203
	22229.902344
	22938.148438
	23081.638672
	23141.496094
	23532.904297
	23852.138672
	23700.216797
	23708.166016
	24652.400391
	24070.916016
	24516.509766
	24910.757812
	22788.126953
	21697.824219
	22968.414062
	22604.021484
	22614.175781
	22256.492188
	24739.841797
	22657.833984
	22054.613281
	23728.511719
	22714.720703
	22446.617188
	23553.761719
	25004.283203
	23269.925781
	24409.271484
	24968.972656
	23985.427734
	22954.402344
	22843.755859
	24931.351562
	23139.146484
	22693.765625
	22825.441406
	23144.343750
	24932.720703
	24575.134766
	23877.412109
	24384.474609
	24055.480469
	22755.914062
	22748.263672
	22565.597656
	24335.986328
	22879.785156
	23807.652344
	23499.384766
	23047.222656
	23653.451172
	25690.185547
	23635.378906
	23701.042969
	22806.710938
	22899.230469
	23892.851562
	24278.669922
	23452.537109
	24395.636719
	23471.285156
	23870.000000
	23758.269531
	23173.775391
	23436.781250
	23295.175781
	23614.853516
	24125.240234
	24420.789062
	23839.593750
	24768.833984
	22415.380859
	24358.939453
	22936.261719
	22887.742188
	22069.302734
	24137.597656
	24743.974609
	24063.464844
	23952.728516
	22866.355469
	23597.837891
	24711.587891
	24001.806641
	21912.050781
	24560.724609
	23145.128906
	23664.755859
	24498.255859
	22747.613281
	22504.636719
	24087.843750
	22866.914062
	22292.089844
	22861.505859
	23442.720703
	22467.841797
	22201.869141
	23201.990234
	23873.732422
	25326.212891
	23114.484375
	22812.060547
	23499.921875
	22333.599609
	22984.412109
	23448.433594
	23181.138672
	23616.964844
	23929.736328
	22348.878906
	24618.621094
	23585.304688
	22579.158203
	21756.984375
	22771.638672
	23522.074219
	23483.779297
	22469.275391
	23749.802734
	22637.919922
	23467.535156
	23121.351562
	22499.769531
	24395.548828
	23632.619141
	23784.371094
	23068.789062
	23649.859375
	23164.011719
	22154.589844
	25212.800781
	24333.996094
	22813.835938
	23392.076172
	23364.060547
	23134.007812
	24191.447266
	24149.093750
	22739.660156
	23713.041016
	23340.949219
	24185.242188
	22359.203125
