	21373.542969
	21037.642578
	21032.835938
	20222.410156
	20405.863281
	19893.324219
	20876.755859
	21997.880859
	20477.878906
	20536.044922
	20426.912109
	20026.978516
	21786.308594
	20819.750000
	21491.945312
	19302.408203
	20664.189453
	20514.414062
	20055.833984
	19996.414062
	22370.939453
	21867.718750
	20505.062500
	20713.916016
	20116.308594
	20399.251953
	20392.921875
	21452.904297
	22219.775391
	22009.632812
	19821.763672
	21173.560547
	20914.066406
	20311.636719
	19849.396484
	19023.990234
	20526.867188
	22305.791016
	20233.390625
	20887.509766
	21453.988281
	20677.505859
	20122.548828
	21920.150391
	20330.751953
	20460.859375
	20473.648438
	20486.857422
	20899.474609
	20579.966797
	20472.607422
	21606.646484
	22653.001953
	21292.939453
	21333.421875
	20737.939453
	19206.492188
	21135.230469
	21902.550781
	20866.642578
	23656.425781
	21308.201172
	21398.128906
	19508.650391
	21022.818359
	21453.736328
	19601.199219
	20267.980469
	18840.904297
	22186.605469
	20471.535156
	19409.330078
	20353.390625
	22680.455078
	21198.957031
	20795.449219
	19604.728516
	20097.406250
	21016.955078
	20797.851562
	20818.421875
	19245.242188
	21995.134766
	20023.003906
	19528.894531
	18942.728516
	20826.046875
	20186.605469
	19727.533203
	20525.796875
	22114.603516
	21305.140625
	19457.931641
	20507.773438
	20079.705078
	21657.322266
	19911.074219
	18331.775391
	21372.607422
	21458.033203
	22858.326172
	21191.611328
	21216.468750
	21098.474609
	21268.876953
	21878.769531
	22060.152344
	22700.933594
	21137.367188
	18680.337891
	21907.285156
	21381.726562
	21394.142578
	19245.529297
	20991.464844
	20959.585938
	21940.035156
	21543.511719
	20561.761719
	21590.046875
	21385.888672
	20690.859375
	20449.654297
	20360.265625
	18941.775391
	21206.728516
	18686.730469
	21366.714844
	19611.830078
	21842.802734
	20155.781250
	20392.947266
	21816.062500
	21723.791016
	20779.058594
	22573.261719
	19861.609375
	21140.261719
	20016.673828
	18643.757812
	21600.121094
	21125.011719
	19659.925781
	20732.029297
	20873.169922
	22240.464844
	21107.480469
	20286.216797
	20125.761719
	19494.814453
	21338.421875
	19237.277344
	19819.146484
	20297.552734
	20722.298828
	20320.375000
	22382.236328
	20708.904297
	21069.593750
	20879.025391
	20553.955078
	20110.935547
	21630.703125
	20041.404297
	21766.404297
	21237.189453
	20160.515625
	21585.623047
	19498.146484
	20403.095703
	22291.210938
	19497.773438
	20735.205078
	22028.039062
	20208.605469
	20623.455078
	22448.269531
	19750.783203
	21604.396484
	18857.113281
	20339.667969
	19595.263672
	18921.912109
	20344.289062
	22016.705078
	20059.601562
	20575.269531
	19605.802734
	20228.470703
	20700.376953
	21302.693359
	20476.869141
	21748.195312
	20564.113281
	20442.212891
	21227.429688
	21140.660156
	20861.238281
	21563.671875
	20841.064453
	19839.107422
	20676.226562
	19826.664062
	21249.472656
	20193.962891
	21772.591797
	21424.474609
	20085.927734
	21761.283203
	21180.828125
	20675.992188
	20297.044922
	22231.046875
	19646.726562
	19982.001953
	20720.236328
	19881.228516
	20078.216797
	21017.500000
	19008.230469
	20941.552734
	19945.068359
	20839.996094
	20874.257812
	20637.636719
	20094.878906
	22532.964844
	20568.224609
	21451.750000
	20281.250000
	22705.001953
	20376.857422
	20135.064453
	20401.716797
	22518.638672
	19414.107422
	19608.542969
	19714.144531
	21268.894531
	20152.699219
	19858.027344
	21694.041016
	20484.035156
	23311.201172
	21075.101562
	20715.537109
	19825.220703
	21388.546875
	22145.173828
	21228.746094
	20158.417969
	21728.810547
	21584.562500
	20798.761719
	21719.927734
	21709.414062
	21682.736328
	21364.699219
	20349.507812
	22871.923828
	20771.556641
	22159.927734
	19614.267578
	21679.029297
	21856.982422
	19658.007812
	21792.808594
	20120.267578
	21680.820312
	21229.115234
	21022.208984
	20455.935547
	20890.707031
	21129.335938
	21611.968750
	20445.826172
	19935.636719
	20313.824219
	21609.617188
	22064.960938
	20107.691406
	21152.011719
	20426.189453
	19905.273438
	20819.757812
	22810.816406
	20002.246094
	21516.974609
	20187.634766
	20740.515625
	21093.398438
	20247.455078
	21615.539062
	20358.582031
	20750.189453
	20185.451172
	18511.109375
	19919.847656
	21230.925781
	20001.433594
