	182186.031250	577026.875000
	187959.765625	542815.187500
	177441.765625	565275.687500
	168250.984375	588289.125000
	165814.359375	582270.562500
	163301.312500	567152.312500
	175389.531250	635370.250000
	174501.500000	576985.687500
	179313.218750	556901.562500
	149445.656250	574770.250000
	164953.515625	610510.750000
	152753.250000	605988.687500
	164644.687500	587987.062500
	172597.562500	603147.875000
	181529.250000	570156.500000
	203838.500000	567444.250000
	164216.281250	575763.500000
	174518.156250	595791.250000
	169718.234375	594099.000000
	168103.921875	574029.375000
	167863.765625	586849.562500
	182855.765625	573753.125000
	158455.796875	606799.500000
	176292.343750	579920.750000
	176022.734375	590766.937500
	169813.812500	596941.875000
	155140.828125	579741.437500
	171162.296875	605909.125000
	186653.765625	578641.062500
	168209.921875	575680.250000
	167916.656250	589417.000000
	179490.046875	626933.812500
	182157.156250	575188.312500
	173439.281250	597097.500000
	179019.421875	559131.812500
	201829.265625	561486.437500
	189594.187500	538461.562500
	159267.015625	567479.750000
	183321.421875	577937.937500
	166143.890625	622356.750000
	159890.234375	578168.000000
	160908.203125	605448.875000
	169788.953125	567667.187500
	174897.921875	554616.250000
	182622.906250	574236.687500
	183899.578125	606009.250000
	164180.609375	546072.312500
	178854.906250	567327.375000
	166610.953125	549694.312500
	182252.312500	596893.937500
	173783.109375	576756.812500
	180673.734375	548140.187500
	160253.250000	584247.750000
	175179.859375	557578.937500
	177179.234375	546856.812500
	156853.171875	586945.250000
	191973.265625	553827.125000
	177558.796875	593754.687500
	170178.296875	527735.562500
	161668.859375	537730.562500
	183475.828125	561808.875000
	149125.171875	602170.312500
	183381.140625	619055.062500
	150988.375000	546096.812500
	173372.109375	562058.625000
	177277.046875	575032.125000
	171210.921875	574057.687500
	153608.031250	598323.187500
	166604.437500	627018.687500
	171639.687500	568795.875000
	168567.937500	610997.312500
	160803.843750	545039.875000
	165063.718750	589985.375000
	169510.375000	614041.062500
	167696.312500	568527.812500
	166893.843750	617163.437500
	181747.218750	526596.937500
	182390.656250	551856.812500
	191366.406250	585737.375000
	177328.765625	614713.500000
	181980.812500	541940.062500
	170942.375000	561228.937500
	182703.328125	566335.625000
	155574.734375	581559.875000
	148944.546875	577364.562500
	178333.062500	633894.375000
	148941.718750	581520.750000
	154506.078125	592820.062500
	184426.859375	567857.875000
	175612.859375	587464.625000
	166480.812500	557144.875000
	194384.171875	633698.437500
	179423.015625	593560.312500
	173125.390625	554667.625000
	181028.265625	581239.812500
	189014.843750	584794.125000
	161261.906250	609914.062500
	190069.531250	578737.125000
	157012.125000	599975.875000
	171522.109375	562667.375000
	163631.390625	551595.875000
	164275.906250	536425.562500
	161899.781250	612800.750000
	191618.531250	510679.718750
	189881.484375	640636.187500
	183533.703125	593735.812500
	200632.656250	556255.625000
	162109.578125	600462.437500
	179989.187500	587229.812500
	160664.406250	552945.375000
	163165.968750	596940.062500
	171570.625000	610223.875000
	151667.281250	590107.625000
	166302.328125	596672.375000
	194324.718750	601509.812500
	169263.375000	571758.625000
	172678.000000	631715.250000
	181356.453125	521581.156250
	185818.359375	609825.375000
	168296.390625	593279.062500
	164284.234375	589646.250000
	181730.312500	612618.062500
	171794.859375	603401.437500
	188341.500000	534319.812500
	191947.187500	564193.187500
	164908.984375	549202.812500
	153200.609375	591368.750000
	155183.015625	598897.312500
	156306.531250	561832.250000
	168879.953125	530870.312500
	175046.921875	548544.750000
	177382.562500	583343.062500
	166869.406250	564748.187500
	174701.296875	593219.437500
	179964.843750	601366.125000
	183244.109375	588691.687500
	178562.953125	607635.750000
	162726.375000	600854.812500
	188077.734375	555856.625000
	160075.703125	558907.812500
	182423.156250	557052.125000
	172199.125000	594275.375000
	176074.234375	579967.625000
	152420.843750	564194.250000
	176680.234375	548875.312500
	143234.343750	587492.000000
	171122.187500	510312.375000
	141698.796875	569025.187500
	163464.171875	537524.500000
	182810.125000	559882.312500
	187968.765625	589097.812500
	170747.546875	544681.312500
	180611.796875	563763.937500
	178562.156250	560769.000000
	154950.828125	554951.062500
	161908.937500	579683.625000
	173439.828125	546812.750000
	186307.031250	560194.625000
	152470.687500	572910.625000
	174028.453125	568404.000000
	167139.625000	583055.125000
	176773.890625	539301.687500
	174061.296875	559475.187500
	178529.421875	513290.687500
	193127.468750	592941.500000
	170612.468750	601422.125000
	184755.531250	580527.062500
	180281.296875	596253.250000
	169699.703125	590378.625000
	153791.687500	560298.875000
	154176.390625	579050.875000
	175775.156250	547624.562500
	178174.968750	557653.875000
	164806.640625	556206.937500
	180373.750000	551116.375000
	157197.734375	608234.312500
	174849.765625	555318.750000
	177094.234375	593278.250000
	168454.968750	570091.062500
	162420.859375	532808.875000
	155143.531250	547548.437500
	201613.390625	569455.000000
	174735.562500	588389.062500
	149474.609375	595443.437500
	180500.312500	575927.437500
	186460.578125	581868.125000
	190017.250000	638295.937500
	190011.000000	590964.750000
	197708.640625	568141.937500
	163926.687500	573241.875000
	174271.656250	565399.812500
	177786.531250	594910.937500
	170716.359375	558710.875000
	177372.312500	568986.312500
	185076.218750	563752.937500
	199293.203125	549089.437500
	209707.500000	564363.500000
	174861.953125	513405.718750
	181532.734375	567157.625000
	214265.703125	598933.312500
	164849.015625	562639.937500
	170246.281250	555053.562500
	177060.578125	592799.187500
	156846.515625	590907.312500
	172787.500000	578200.000000
	181641.187500	528278.437500
	171103.453125	580508.812500
	186873.203125	553062.437500
	177756.781250	587746.562500
	165312.546875	535128.937500
	160239.453125	584262.937500
	150391.875000	575685.687500
	184998.906250	553451.062500
	166037.187500	511444.093750
	171288.468750	567714.687500
	193042.140625	575652.062500
	168281.062500	561075.875000
	188094.968750	539780.875000
	186987.343750	576710.312500
	193018.656250	557929.187500
	196550.125000	608617.875000
	162523.828125	565171.500000
	190378.468750	543472.000000
	173080.937500	561224.000000
	169472.703125	604038.500000
	170776.218750	549091.125000
	181547.156250	584388.000000
	168224.296875	530713.312500
	172380.593750	606730.562500
	178548.875000	587449.187500
	155287.484375	625481.250000
	156739.968750	572295.250000
	178336.062500	537626.687500
	169991.703125	595717.875000
	180417.765625	537568.437500
	186265.515625	554547.000000
	149177.062500	566094.437500
	176119.203125	541237.687500
	173465.781250	611889.500000
	177465.828125	566389.875000
	160481.265625	615334.812500
	172345.656250	599968.000000
	169291.562500	562474.562500
	173244.531250	597827.062500
	175365.953125	554138.687500
	173296.250000	612668.500000
	182048.437500	585603.687500
	177557.546875	604447.375000
	192725.718750	564932.312500
	185517.937500	597460.312500
	172867.890625	593996.875000
	167569.656250	595757.187500
	141430.734375	619158.375000
	189382.390625	572864.625000
	174013.984375	593068.812500
	164603.015625	595132.687500
	172124.390625	592470.812500
	165059.375000	614535.812500
	183626.375000	603402.875000
	172672.796875	564696.875000
	175540.609375	523881.812500
	150933.203125	537711.812500
	160297.906250	583857.812500
	185134.531250	595959.125000
	160981.640625	597298.250000
	216029.671875	606301.312500
	165052.640625	591439.625000
	167902.843750	610342.812500
	155878.859375	611922.812500
	172760.687500	558754.750000
	153326.156250	602744.000000
	179478.109375	601916.125000
	186930.640625	571011.937500
	171550.765625	569612.875000
	178710.125000	581210.000000
	154333.796875	549065.437500
	178791.375000	559729.687500
	162268.484375	602371.000000
	172499.437500	575051.187500
	169799.000000	591924.125000
	159635.031250	629698.312500
	175452.578125	593066.937500
	193610.812500	544972.937500
	164827.156250	588816.437500
	181058.390625	591450.062500
	162073.843750	569237.562500
	173554.593750	592500.750000
	141019.953125	596309.125000
	160428.984375	572437.375000
	163644.781250	557741.500000
	199922.359375	568216.562500
	147634.765625	579744.687500
	176216.234375	598713.875000
	200332.578125	592063.625000
	166313.812500	554671.437500
	182553.859375	574458.875000
	193129.109375	559868.312500
	150858.343750	596853.000000
	169040.578125	565664.500000
	187033.781250	544299.937500
