	112845.515625	555749.000000
	112067.554688	621683.375000
	110334.171875	559596.062500
	113574.664062	544264.375000
	114895.164062	536160.812500
	117819.765625	558937.937500
	113728.078125	529437.687500
	109867.101562	584086.125000
	113212.429688	584881.125000
	114049.179688	572668.000000
	113761.515625	557032.500000
	118817.304688	581598.437500
	113268.484375	581090.375000
	110065.570312	588461.437500
	113296.945312	532873.312500
	112778.539062	566728.062500
	110329.109375	578479.687500
	111292.093750	552138.000000
	116748.945312	582906.562500
	113115.640625	595181.312500
	111910.968750	648823.375000
	111992.796875	577757.437500
	108473.820312	584430.625000
	109569.484375	554281.625000
	113012.898438	582050.875000
	110298.835938	539585.812500
	113256.843750	597195.812500
	112812.492188	551600.312500
	111723.093750	579622.125000
	117406.203125	578135.812500
	114931.093750	598843.000000
	109957.664062	525372.562500
	113080.437500	531489.062500
	116322.031250	608840.625000
	116627.429688	604673.875000
	114854.992188	559708.187500
	110353.382812	568625.375000
	111635.648438	561694.125000
	111874.367188	574487.937500
	111888.554688	566469.562500
	116977.593750	533315.625000
	116124.562500	567297.500000
	112250.429688	536453.000000
	112587.695312	593169.125000
	110461.539062	615174.812500
	111780.382812	570089.187500
	115834.984375	569234.750000
	111323.414062	617960.187500
	115068.351562	570281.750000
	112245.500000	561820.750000
	112638.523438	558614.500000
	116661.062500	580647.250000
	112140.554688	575195.375000
	114125.632812	607828.687500
	110597.218750	583510.312500
	115370.875000	629621.250000
	113824.726562	581991.000000
	114329.273438	588891.250000
	111934.523438	569759.375000
	116458.203125	571573.062500
	111751.078125	590884.562500
	110819.156250	558602.500000
	110008.468750	606760.875000
	112201.671875	568030.437500
	113876.179688	584993.875000
	113166.031250	589179.000000
	112607.171875	583022.875000
	108868.539062	576821.937500
	111466.476562	629221.000000
	119968.210938	560028.062500
	114432.039062	555223.062500
	116781.507812	561051.937500
	109261.820312	519550.531250
	115455.132812	543001.687500
	115505.203125	597741.375000
	111143.476562	552821.812500
	117232.859375	571130.500000
	114026.398438	578419.937500
	112984.835938	582853.187500
	119824.007812	546803.375000
	112347.031250	588803.750000
	110569.390625	569796.312500
	111256.890625	549871.250000
	109401.273438	576676.875000
	114731.882812	585494.937500
	113291.921875	550887.750000
	112534.242188	581821.625000
	111624.117188	555006.500000
	117565.210938	545173.500000
	111701.835938	548530.937500
	114827.960938	560366.750000
	114527.992188	577041.812500
	112259.601562	525396.562500
	111082.453125	612746.312500
	111087.539062	586468.812500
	116471.312500	574758.375000
	115052.210938	593973.312500
	114335.421875	562766.312500
	112345.507812	610804.312500
	117191.796875	569475.375000
	110760.726562	569541.500000
	115764.195312	574303.375000
	112605.460938	584578.250000
	114396.609375	568498.812500
	111523.578125	631579.062500
	110860.921875	573291.062500
	113468.710938	573079.687500
	114080.960938	587923.000000
	114733.953125	586442.250000
	113378.703125	531742.375000
	110667.164062	574011.500000
	113551.281250	554820.187500
	113357.765625	596530.625000
	112066.445312	547858.937500
	111790.273438	580472.937500
	116415.906250	558615.437500
	120647.570312	550458.500000
	111924.218750	576112.187500
	113943.164062	535611.875000
	113734.312500	531406.312500
	115234.578125	586811.562500
	112685.320312	565638.687500
	110456.882812	616801.812500
	110821.945312	553304.562500
	119998.992188	599853.062500
	117856.781250	555021.562500
	110362.914062	581974.687500
	110880.164062	582282.000000
	111945.242188	560594.937500
	110153.679688	575959.812500
	108629.210938	562070.000000
	116441.507812	568522.000000
	111792.632812	547813.000000
	116679.515625	601328.937500
	113572.304688	579624.625000
	114002.015625	572958.500000
	109675.093750	580490.375000
	113677.453125	589765.687500
	110640.601562	631937.187500
	112116.851562	561277.750000
	115032.312500	583123.437500
	117267.281250	553139.625000
	112423.531250	565839.500000
	116372.445312	534309.437500
	111563.976562	590432.937500
	114261.093750	595202.437500
	115371.976562	596822.937500
	112501.382812	553320.312500
	113945.984375	587663.250000
	113514.851562	580801.187500
	112401.257812	597922.312500
	111278.242188	525983.875000
	113828.046875	618207.937500
	119256.500000	565258.562500
	116925.765625	563669.250000
	115174.578125	556084.500000
	113710.546875	558163.062500
	114186.632812	609864.312500
	109163.398438	555565.687500
	113903.218750	574459.937500
	117324.570312	540476.062500
	113746.976562	561946.875000
	112272.523438	582353.187500
	110461.617188	583157.062500
	114776.351562	626856.437500
	113813.359375	593168.125000
	112196.835938	614448.375000
	111533.375000	552416.437500
	112463.187500	596668.500000
	117311.187500	569564.062500
	108790.710938	588007.125000
	110060.054688	522110.250000
	112502.898438	573221.000000
	115111.695312	586002.687500
	111269.484375	565572.312500
	109633.132812	583185.625000
	110872.203125	582357.750000
	116831.171875	550905.875000
	113921.515625	581778.687500
	110753.460938	583955.062500
	111614.828125	581244.750000
	112918.007812	543945.312500
	110591.617188	580439.937500
	113424.695312	613931.500000
	113755.484375	584835.937500
	110828.421875	567339.250000
	112163.148438	609620.187500
	109419.367188	581899.625000
	114961.023438	561024.625000
	113616.718750	548394.125000
	112549.320312	575807.812500
	115005.695312	557870.500000
	110770.968750	577946.750000
	111687.562500	580499.312500
	111894.406250	532168.625000
	117182.914062	575895.687500
	112362.625000	556421.375000
	112213.875000	604690.437500
	113227.273438	569313.687500
	117979.132812	568841.562500
	119508.359375	606668.187500
	113111.500000	570828.312500
	112281.289062	566973.937500
	120206.609375	549459.562500
	120300.984375	583085.562500
	112617.773438	600224.062500
	113322.781250	572028.375000
	111223.156250	569509.062500
	113261.539062	589094.937500
	115997.148438	563370.937500
	116329.750000	541224.375000
	115101.992188	588116.375000
	114823.265625	523558.687500
	108774.156250	604594.250000
	114766.679688	560628.250000
	116655.554688	537839.312500
	110024.398438	611511.625000
	112330.507812	613613.562500
	111650.195312	621552.687500
	113984.898438	591761.875000
	112427.726562	547542.062500
	113581.992188	574570.375000
	114823.320312	570092.812500
	114892.531250	583380.750000
	116130.757812	556511.687500
	109368.804688	581212.562500
	113131.726562	563750.500000
	111749.812500	511306.531250
	114410.750000	516839.687500
	112322.234375	562556.812500
	111649.695312	577570.812500
	118669.859375	553078.687500
	117389.734375	614449.062500
	109437.031250	596437.687500
	113584.273438	556698.187500
	121633.773438	592585.500000
	111978.929688	589244.500000
	113907.140625	595179.875000
	111034.796875	594347.875000
	110806.656250	605700.687500
	113329.804688	544923.750000
	119505.609375	540744.312500
	112457.937500	580112.062500
	114663.984375	571655.000000
	109623.218750	590705.812500
	115617.671875	573270.187500
	112493.742188	552061.437500
	118542.726562	599032.375000
	110497.632812	534928.125000
	113012.296875	575362.312500
	114405.796875	557324.437500
	115092.437500	585382.000000
	111674.710938	534646.500000
	111786.500000	560192.000000
	114116.734375	577536.812500
	113038.812500	588530.500000
	111044.046875	620342.875000
	120062.273438	607402.875000
	114593.109375	543328.187500
	113416.757812	582013.750000
	122545.789062	609672.312500
	114812.125000	589186.250000
	112412.750000	559009.625000
	112511.023438	560562.875000
	110885.367188	589609.562500
	113566.226562	547862.875000
	113109.937500	596062.875000
	110702.070312	548637.000000
	115716.179688	609100.625000
	117638.976562	581159.250000
	109459.617188	554483.500000
	118255.992188	567442.687500
	113591.039062	543164.187500
	114156.960938	599351.500000
	117249.085938	561368.375000
	110083.398438	611875.187500
	110275.398438	647256.750000
	116261.687500	589140.812500
	111330.289062	581505.625000
	112649.234375	566910.312500
	111428.523438	565650.625000
	113150.515625	605624.625000
	118679.187500	572569.437500
	112918.429688	571521.375000
	110986.273438	587664.312500
	113124.250000	518637.000000
	113782.976562	588035.562500
	119385.882812	574648.875000
	111758.750000	595939.062500
	114348.351562	553350.312500
	112529.867188	557866.625000
	115403.562500	616739.375000
	114883.117188	548408.812500
	112731.906250	569108.625000
	114080.875000	601559.437500
	115268.664062	563267.437500
	117532.656250	596625.750000
	115230.703125	595973.625000
	109889.601562	598898.937500
	117008.062500	578027.750000
