	734.793457
	710.200745
	684.942566
	721.804565
	740.539856
	728.786072
	736.880249
	729.019592
	713.357971
	738.607056
	719.695801
	708.041992
	714.094116
	750.552002
	693.379395
	708.286621
	717.367737
	692.278320
	685.207336
	765.521667
	746.407166
	728.026489
	716.969543
	706.836731
	717.547852
	713.067200
	735.618286
	723.311401
	744.196777
	727.029297
	701.346802
	694.025757
	768.944214
	765.039429
	701.542297
	682.747253
	761.570801
	726.990601
	717.934082
	709.225830
	741.316772
	704.153625
	705.075439
	688.682129
	716.981873
	731.141602
	690.409973
	735.697144
	702.130249
	741.161987
	730.244629
	724.204956
	697.700867
	742.067444
	713.276733
	712.088928
	715.137207
	744.135620
	746.050598
	754.273438
	721.216125
	733.013123
	696.649536
	713.000122
	738.748657
	738.690430
	713.015564
	705.460449
	739.220947
	749.895020
	690.055847
	726.577759
	704.821350
	717.780273
	717.268555
	705.618164
	738.435547
	747.411926
	728.982178
	686.819702
	742.951904
	713.659790
	704.649048
	730.222595
	750.049988
	684.041870
	716.719727
	716.792542
	722.298706
	734.743103
	721.730286
	730.433594
	724.688599
	714.169067
	711.738220
	716.719543
	764.067261
	721.139160
	741.182861
	732.793152
	757.669189
	707.024414
	721.317139
	707.260986
	711.515381
	715.934998
	735.463013
	759.683472
	760.787781
	706.854797
	714.012939
	730.069092
	742.360901
	696.348511
	723.420288
	735.526367
	769.855652
	731.256104
	713.548828
	706.882629
	703.764221
	733.032898
	739.313293
	752.247375
	761.724915
	717.492249
	743.406433
	727.028992
	724.052246
	721.614258
	707.164307
	740.387146
	727.375671
	720.762146
	712.805237
	717.084473
	713.924561
	746.082703
	756.651428
	715.052063
	760.580383
	705.604004
	714.232422
	733.802124
	710.758667
	717.944946
	711.357422
	699.481262
	704.955322
	693.975220
	731.640869
	732.072937
	695.797791
	732.587219
	734.975037
	737.786438
	740.837402
	717.684387
	717.620911
	722.666321
	733.842224
	701.529846
	699.595276
	755.643494
	704.955078
	725.033020
	726.187500
	724.979248
	708.212463
	723.784241
	723.900269
	730.651367
	727.033630
	710.497437
	742.164978
	747.955872
	737.758423
	759.794067
	683.560547
	735.280945
	692.276672
	699.886841
	712.102478
	728.841309
	734.534851
	751.908569
	738.937500
	688.950806
	735.077393
	720.806030
	701.306213
	717.880493
	717.746094
	742.565979
	733.093445
	768.417603
	749.072998
	732.523254
	738.059448
	728.843445
	737.617188
	727.033264
	734.484436
	705.789429
	728.626709
	762.272278
	698.991760
	720.691284
	733.686707
	718.134338
	684.328064
	711.903503
	719.509521
	693.775146
	698.507263
	742.133728
	746.897278
	744.597961
	742.218872
	718.626099
	748.891113
	705.378296
	698.955750
	725.016663
	753.664062
	704.853455
	706.203918
	695.963013
	740.109070
	734.609497
	728.543640
	788.985535
	706.786499
	730.610352
	754.837769
	714.493652
	697.988342
	746.947998
	700.212524
	705.992310
	725.476013
	719.167542
	717.910156
	714.028564
	690.695618
	705.828369
	706.816101
	758.178589
	729.329834
	715.373596
	698.852783
	716.136902
	728.271973
	703.225464
	695.559204
	706.180176
	710.699890
	732.232300
	718.328064
	722.708435
	710.026917
	703.088623
	727.560425
	738.058411
	736.458313
	699.769836
	740.935669
	720.136230
	691.245605
	742.761353
	693.239868
	719.840759
	703.653076
	715.511536
	718.392395
	745.578003
	716.135925
	698.901794
	733.310486
	690.643250
	728.112244
	744.310303
	745.498779
	716.052246
	728.201355
	721.850281
	726.173340
	721.218384
	709.550049
	742.179688
	714.789551
	708.380127
	734.634277
	713.567627
	749.322510
	713.318237
	731.094482
	712.834412
	716.546204
	711.549988
