116
139
26
12
105
90
118
67
127
86
0
81
94
54
107
18
8
27
5
98
113
101
69
136
131
49
134
85
28
1
36
41
119
138
46
109
19
50
108
37
22
128
143
48
146
144
135
111
63
43
70
44
3
103
21
2
47
72
75
33
62
58
77
14
121
132
15
110
104
32
51
120
87
93
9
112
29
7
88
95
78
20
114
149
124
148
61
34
92
123
6
83
73
122
30
71
79
13
76
45
89
55
74
17
141
84
64
57
80
52
23
117
68
39
24
140
82
25
96
4
106
102
97
115
129
147
10
60
35
126
100
40
56
38
59
65
16
11
42
66
31
130
133
137
53
91
145
142
99
125
