75
3
64
25
65
93
23
37
98
35
58
10
59
6
8
56
97
90
31
83
87
15
21
69
18
74
60
13
70
40
99
47
51
77
95
38
84
86
76
22
44
16
14
61
11
54
45
42
2
28
33
50
57
27
92
19
85
34
26
82
29
12
94
81
1
5
48
91
41
88
30
79
55
9
71
20
73
46
66
53
39
63
43
49
72
68
0
62
89
17
78
52
96
7
24
80
67
4
36
32
