100
96
95
91
90
84
83
82
81
77
70
67
66
58
55
54
49
47
44
48
39
103
35
36
25
24
17
16
15
18
23
26
19
22
27
32
31
30
29
28
21
20
102
11
14
10
9
6
5
1
0
2
7
8
4
3
12
13
33
34
37
38
41
42
40
43
46
50
45
51
52
57
53
56
104
61
62
63
71
76
78
85
88
89
80
74
73
79
75
72
68
69
60
59
64
65
86
87
93
94
99
98
97
92
101
