320
319
318
292
293
294
295
296
297
298
299
300
301
302
303
304
305
330
331
367
368
369
370
371
372
373
374
337
336
426
335
334
333
431
332
306
274
436
264
422
437
271
419
267
415
263
262
235
261
260
421
418
258
259
412
411
407
408
403
216
204
193
180
167
156
144
143
390
131
120
384
108
380
381
109
121
110
122
132
145
157
168
181
195
194
205
206
196
207
217
208
218
410
409
413
236
225
219
209
198
183
170
197
182
169
158
146
133
159
147
134
124
383
382
112
123
111
435
100
92
61
93
94
63
95
378
379
96
97
64
32
376
375
31
30
29
62
28
27
60
59
26
25
58
91
90
89
57
24
23
56
88
87
377
86
54
55
22
21
20
19
52
53
85
84
83
51
18
17
50
82
438
107
118
129
389
387
119
130
142
155
166
179
192
191
203
215
224
232
257
256
255
254
253
252
417
277
416
251
250
249
414
248
247
246
245
244
243
242
241
240
234
227
405
400
185
172
161
173
395
186
398
406
402
210
211
220
228
229
221
212
199
187
396
163
164
176
188
200
201
401
213
222
230
231
223
214
202
189
190
397
178
393
394
177
165
154
141
153
139
140
128
117
106
99
79
80
81
49
16
15
48
47
14
13
46
78
77
45
12
11
44
76
98
105
104
116
127
138
152
162
175
392
174
151
391
137
115
386
388
150
149
136
126
385
440
114
103
66
67
35
68
69
70
71
39
72
73
74
75
43
10
9
42
41
40
8
7
6
5
38
37
4
3
36
2
1
34
33
0
441
65
101
102
113
125
135
148
160
171
184
399
404
226
233
237
238
265
268
269
239
266
270
273
276
272
275
278
280
281
427
340
341
345
346
307
439
425
279
282
308
309
283
284
285
286
423
420
424
290
291
317
316
315
289
288
287
313
312
339
311
310
338
432
347
348
349
350
351
342
314
352
353
354
433
355
356
357
434
358
359
429
360
343
361
362
363
430
364
365
366
344
329
328
327
326
325
324
428
323
322
321
