58
22
56
62
41
67
39
63
26
42
3
35
14
66
47
50
48
10
16
54
15
36
31
71
32
37
9
38
24
60
64
45
40
30
57
2
59
68
53
33
27
72
13
17
34
46
28
19
43
74
75
70
49
52
44
8
61
12
6
21
25
1
55
18
0
29
23
7
65
73
51
11
5
69
20
4
