46
15
0
35
22
37
58
21
62
65
56
14
23
1
6
31
2
7
27
25
48
54
18
3
17
41
5
40
42
16
20
33
11
59
51
9
4
52
49
57
36
50
55
64
10
66
47
53
32
61
60
39
44
38
24
45
26
8
67
43
29
19
13
68
30
12
28
69
34
63
