	8134.138184	27701.007812
	8442.856445	32263.835938
	8383.327148	30004.435547
	8258.510742	31184.417969
	8137.426758	30051.144531
	8072.933105	28881.371094
	8542.743164	30916.369141
	8229.953125	29074.796875
	8066.507324	28619.656250
	8429.916016	30831.558594
	8153.340820	27121.128906
	8040.463379	30650.988281
	8217.283203	29744.824219
	8270.234375	30780.208984
	7925.627441	29411.886719
	8215.086914	31357.574219
	8272.525391	29325.392578
	8274.415039	31216.357422
	8071.694824	30975.255859
	7873.869141	31543.218750
	8758.880859	30058.832031
	8117.579590	30166.789062
	7812.943848	33260.113281
	8217.541992	29350.996094
	8281.279297	29214.503906
	8181.517578	29107.693359
	8314.678711	29845.351562
	8157.515625	31278.939453
	7979.306152	28142.962891
	7895.271973	30568.857422
	8637.732422	29270.832031
	8382.867188	28519.421875
	7983.078125	30235.671875
	8439.817383	31956.082031
	8059.240723	31504.710938
	8208.357422	32906.582031
	8084.657715	27369.238281
	8120.871094	31602.423828
	7875.497559	29464.937500
	8403.052734	26863.408203
	7935.190430	32152.767578
	8157.984375	31996.458984
	7931.346191	30750.244141
	8074.356934	31147.751953
	7763.553223	29522.699219
	8502.984375	31200.097656
	7918.098145	28330.828125
	8483.908203	31199.443359
	8146.816406	30568.312500
	7887.232910	29057.205078
	8261.796875	30913.097656
	8428.065430	31980.541016
	7875.059570	34025.062500
	8101.173828	32203.009766
	8152.213867	28241.281250
	8011.225586	30458.740234
	8322.911133	30579.878906
	8295.641602	31607.300781
	8532.092773	28237.294922
	7900.667480	31798.591797
	8611.078125	28852.621094
	8214.025391	32095.884766
	7962.097168	32329.101562
	8041.981445	32917.867188
	7963.598633	30123.867188
	8339.892578	29552.421875
	8317.970703	30374.292969
	8415.090820	29308.048828
	8469.423828	28893.064453
	8063.803223	29959.458984
	8496.058594	32613.443359
	7978.447266	32094.044922
	8224.544922	31118.642578
	8170.547363	29069.554688
	7777.339844	31045.798828
	8160.620605	30805.173828
	8046.775879	27760.203125
	8441.712891	33206.980469
	8011.840332	29836.142578
	8005.104004	30830.607422
	8311.343750	29436.726562
	8590.116211	32396.908203
	7875.065430	30452.939453
	7963.200195	28628.125000
	8696.836914	31564.828125
	8331.544922	25812.904297
	7968.965820	31268.943359
	8065.025391	27297.876953
	8065.343750	29707.789062
	8133.869141	30607.181641
	7810.596680	30846.632812
	7777.335449	30254.087891
	8320.483398	32682.675781
	7629.868164	31616.544922
	8335.630859	28470.841797
	8341.186523	30975.826172
	7784.543457	30117.730469
	8148.768066	29681.966797
	7910.903809	33032.847656
	8188.598633	28319.681641
	7914.856445	29655.550781
	8141.887207	30111.277344
	7850.486816	28587.933594
	8070.724609	30554.835938
	8088.592773	29595.130859
	7862.971191	28745.072266
	8333.512695	31064.005859
	8059.935547	28441.652344
	8065.164551	31312.945312
	8351.498047	29342.007812
	7723.328125	27914.171875
	8273.396484	30511.023438
	8037.523926	29407.287109
	8161.865234	30745.109375
	7726.237305	29846.216797
	8015.952148	26720.218750
	8080.832520	29503.447266
	8043.001465	28846.957031
	8408.563477	30435.814453
	8268.984375	28983.570312
	8088.254395	31502.300781
	7865.532227	30806.375000
	8291.183594	27984.011719
	7978.097168	27738.955078
	8500.788086	28418.224609
	8088.928223	30531.460938
	7908.000977	30077.671875
	8211.757812	28974.207031
	7672.715820	29352.779297
	8207.441406	26920.078125
	8044.698730	26900.093750
	7875.489746	29975.310547
	8285.460938	32523.974609
	8388.968750	29327.384766
	8272.404297	30378.238281
	8076.739746	29639.037109
	8565.212891	29308.664062
	8516.695312	27654.296875
	8421.997070	30490.976562
	7914.765625	31638.822266
	7921.795410	31633.501953
	8133.233398	29601.013672
	8060.656250	30532.927734
	8390.217773	31408.179688
	8029.350586	29600.912109
	7923.122559	28959.621094
	8144.227539	29449.220703
	8302.643555	28915.960938
	8234.295898	28629.484375
	8244.723633	30343.679688
	7875.061523	27814.689453
	8323.114258	29555.125000
	8118.451660	30250.861328
	7919.086426	30753.238281
	8049.684570	30254.082031
	8011.262207	29101.511719
	8191.887695	28035.007812
	8237.191406	30600.048828
	8065.343262	30320.742188
	8182.595215	29314.113281
	8429.535156	29625.945312
	8187.638184	31652.466797
	8254.278320	30023.884766
	8136.514160	28410.796875
	8327.210938	29481.632812
	8288.151367	30780.386719
	8466.664062	29299.603516
	7785.606445	28753.078125
	7867.449707	30438.875000
	8122.785156	28814.609375
	7800.285645	32153.796875
	7956.629883	33438.281250
	7784.555176	26051.177734
	8158.366211	32905.554688
	8081.881348	30530.968750
	8423.938477	30007.154297
	7656.577148	29295.164062
	8105.246582	29836.382812
	7906.400391	29565.675781
	7908.037598	29654.671875
	8354.852539	31095.101562
	8091.240234	33068.605469
	8211.797852	28994.892578
	8000.280273	30018.669922
	8329.470703	31998.312500
	8331.648438	33181.210938
	8093.390625	30245.943359
	8243.718750	28352.960938
	8008.308105	29894.224609
	8016.949219	30965.126953
	8112.494141	31028.736328
	8168.389648	30164.763672
	7967.430176	31001.923828
	7957.111816	27598.380859
	7989.321777	30614.847656
	8015.650391	29328.070312
	7919.447266	29004.757812
	7925.174316	28815.976562
	7854.777832	29260.373047
	8615.910156	27742.773438
	8103.573242	29791.601562
	7972.774902	28903.515625
	8264.675781	31967.773438
	8274.284180	31254.384766
	7831.281250	31847.630859
	8142.811523	30049.062500
	8037.471680	30937.115234
	7873.145508	30062.691406
	8277.305664	30925.335938
	8395.412109	29503.302734
	8141.590332	27321.037109
	8408.259766	33638.601562
	8327.672852	29516.263672
	8104.829590	31398.781250
	8070.020996	28411.773438
	7941.487305	29873.203125
	8175.479004	30879.501953
	8008.099609	32044.982422
	7963.756836	30091.689453
	8093.689453	29944.468750
	7973.696777	29753.175781
	8047.091309	28811.734375
	8146.766602	28812.218750
	8365.833984	31455.376953
	8200.981445	31793.441406
	8168.487305	31063.519531
	8461.429688	31736.265625
	8122.892090	31606.927734
	8008.692383	26468.402344
	8572.486328	32007.724609
	8146.476074	30791.837891
	8079.801270	30858.646484
	8409.684570	29679.083984
	8211.698242	29274.525391
	7851.041992	29931.275391
	8194.651367	30264.087891
	8279.217773	33208.738281
	7857.848145	30049.386719
	8238.355469	29535.445312
	8154.799316	30964.537109
	8352.669922	30345.662109
	8218.365234	30608.716797
	8099.270020	30062.910156
	8256.402344	26922.996094
	7978.842773	30234.523438
	8201.017578	31304.960938
	8456.640625	30134.751953
	7875.063477	32304.951172
	8282.955078	30721.886719
	8209.523438	29454.630859
	8212.702148	28705.074219
	8119.367676	31437.447266
	7971.542480	29953.029297
	8054.684082	28080.789062
	8012.368652	32552.134766
	8392.689453	31991.802734
	8203.628906	32092.222656
	8254.830078	31466.792969
	7923.865234	31419.523438
	7947.383789	29214.025391
	7912.911621	31766.287109
	7867.451172	29781.335938
	7919.326172	28925.242188
	8077.489746	28099.117188
	7907.878906	27311.263672
	8120.433105	28613.031250
	8774.900391	28776.185547
	8398.201172	29493.330078
	8316.603516	28554.402344
	8418.165039	32198.404297
	8645.815430	31705.912109
	8110.107422	31111.570312
	8865.311523	31027.880859
	8333.863281	30256.427734
	8132.403320	29721.988281
	7810.584473	29049.107422
	8270.358398	30865.884766
	8098.378418	29840.923828
	8045.611328	31430.152344
	8285.081055	30031.269531
	8203.027344	29781.048828
	8320.605469	29197.437500
	7777.327637	30153.849609
	8037.785645	30675.316406
	8128.785156	27895.154297
	8047.598633	28956.693359
	8380.132812	31745.689453
	8229.021484	28769.726562
	7950.515137	29693.992188
	8026.966797	32662.308594
	8201.775391	29038.621094
	8141.305664	26722.083984
	8044.115234	31309.070312
	8456.092773	30204.144531
	8163.437500	30607.222656
	8489.716797	31303.818359
	8215.730469	29939.701172
	8676.248047	29209.449219
	8372.675781	31691.025391
	8492.460938	27960.173828
