	21783.400391	158062.578125
	22751.376953	160188.671875
	21931.363281	157520.515625
	22388.542969	178045.921875
	22772.632812	185665.875000
	22422.503906	173730.562500
	22943.566406	175695.781250
	22296.263672	181194.515625
	22377.388672	189673.250000
	22015.572266	173214.250000
	22173.376953	170581.625000
	22136.984375	174463.187500
	21900.320312	169955.140625
	23319.210938	167600.875000
	21888.550781	171524.437500
	22239.328125	160325.125000
	22206.587891	167582.843750
	22207.394531	192053.109375
	22129.259766	172886.437500
	22202.765625	175738.375000
	22325.259766	171374.390625
	22457.906250	179556.468750
	22769.189453	169005.203125
	21786.699219	172521.593750
	23932.675781	163248.875000
	23205.447266	163709.218750
	23367.212891	173535.500000
	22619.078125	164469.984375
	22343.384766	169475.765625
	23393.039062	149013.890625
	23096.517578	176318.093750
	22662.207031	174039.187500
	22567.720703	172899.390625
	23793.623047	173265.765625
	22514.910156	169013.703125
	22575.234375	164319.937500
	23092.578125	169842.765625
	22208.246094	182671.500000
	24035.324219	177992.375000
	22266.064453	181355.343750
	21783.242188	191439.562500
	22671.193359	164187.281250
	22781.042969	170007.625000
	22100.548828	177658.625000
	22592.779297	145129.234375
	22286.861328	172550.109375
	22617.830078	171845.421875
	22080.570312	155859.453125
	23308.486328	162319.296875
	22328.023438	156256.359375
	21490.052734	186486.703125
	22167.416016	170092.875000
	23501.033203	166768.562500
	23329.400391	187688.390625
	22916.373047	170881.640625
	22334.949219	171341.984375
	22311.792969	183772.343750
	23431.916016	162133.375000
	21825.687500	161295.781250
	23484.191406	165323.312500
	22451.804688	165274.359375
	22343.654297	167379.203125
	22522.326172	175204.250000
	22044.953125	167570.000000
	22508.826172	177852.578125
	21931.179688	174819.781250
	22847.021484	167394.750000
	23571.945312	166630.031250
	21977.408203	172014.718750
	23386.433594	171204.218750
	23137.355469	173552.468750
	22564.078125	170167.640625
	22400.310547	167355.000000
	22731.123047	182029.000000
	22440.927734	179107.046875
	22722.662109	156185.640625
	23078.070312	185492.578125
	23384.626953	173479.843750
	21689.636719	166526.421875
	22661.574219	173025.593750
	21857.326172	182079.078125
	22882.332031	163657.484375
	21765.312500	164496.593750
	22646.373047	165571.093750
	22030.566406	180379.375000
	22445.675781	188359.843750
	22514.031250	166550.125000
	21399.476562	175312.031250
	22435.195312	183928.937500
	22300.224609	161725.343750
	21971.156250	177303.046875
	22148.332031	160726.750000
	22757.742188	160905.718750
	22688.244141	180752.421875
	21796.888672	176449.218750
	22848.642578	160308.765625
	21887.189453	180231.250000
	22282.523438	178200.062500
	21778.966797	166630.312500
	22368.277344	164615.781250
	22735.650391	179985.468750
	23067.119141	181192.234375
	23234.271484	163308.093750
	22111.558594	183461.703125
	22700.175781	178814.921875
	23809.617188	177782.578125
	21808.960938	171315.953125
	21823.986328	179811.218750
	22305.814453	172534.734375
	22304.853516	180868.156250
	21987.626953	173818.812500
	21500.822266	179615.328125
	21679.345703	154285.328125
	21932.121094	176787.796875
	24277.847656	153193.359375
	22349.242188	159489.546875
	21689.230469	172211.453125
	23597.587891	156390.515625
	22275.562500	175148.484375
	24123.226562	170867.687500
	23352.855469	179253.625000
	21868.994141	169675.625000
	23607.220703	171389.375000
	22426.626953	167991.984375
	21989.359375	168745.515625
	23153.939453	166078.359375
	23495.978516	163419.390625
	21559.070312	170779.343750
	22107.726562	188159.656250
	21978.822266	170349.140625
	22922.582031	166224.578125
	22876.072266	165737.984375
	22038.605469	182884.984375
	21745.535156	176791.812500
	21826.167969	170869.406250
	21570.708984	174647.593750
	22070.943359	169164.390625
	22281.333984	168526.046875
	22367.056641	159460.515625
	23250.916016	168868.328125
	22712.503906	169086.781250
	24124.853516	171567.578125
	22562.560547	179871.328125
	22026.416016	184402.218750
	22045.666016	167011.218750
	21569.429688	156619.921875
	23183.140625	163856.078125
	22870.396484	177088.031250
	22050.902344	165068.234375
	22643.333984	171153.437500
	23223.103516	167779.671875
	21370.216797	174506.031250
	22326.208984	161718.125000
	23213.101562	173067.625000
	21859.607422	169575.968750
	23099.470703	173609.875000
	23062.964844	173925.046875
	22160.945312	174108.500000
	22947.355469	158139.390625
	22343.556641	154672.843750
	21762.712891	166622.015625
	23765.164062	180893.515625
	23520.679688	173860.484375
	21853.166016	164294.812500
	22496.648438	176877.156250
	23059.763672	171437.375000
	22430.990234	151800.046875
	21724.255859	166306.843750
	22342.400391	163680.531250
	22521.781250	174668.296875
	21829.330078	158348.187500
	22816.218750	172506.828125
	22370.351562	164979.765625
	21902.849609	183469.593750
	21905.300781	191182.453125
	22289.189453	168861.062500
	22396.822266	175029.156250
	22956.138672	182378.234375
	23452.093750	164379.265625
	22701.755859	181522.078125
	21969.808594	169173.593750
	23061.927734	174870.046875
	21863.177734	166899.625000
	22719.929688	168304.968750
	23309.044922	168329.843750
	21744.285156	167398.234375
	22911.359375	169015.765625
	22935.644531	167551.531250
	22291.693359	174323.546875
	22782.011719	174958.593750
	21746.337891	180846.515625
	22061.816406	172595.562500
	21956.169922	186699.734375
	22842.332031	170011.187500
	23766.763672	178563.265625
	22079.152344	177530.312500
	21384.958984	165421.531250
	22787.650391	170736.281250
	22448.052734	176699.734375
	22500.458984	177842.906250
	22577.968750	188355.312500
	23549.585938	168128.328125
	22212.437500	179260.921875
	22490.564453	183923.281250
	21953.171875	181476.078125
	22004.371094	168890.484375
	22696.402344	178974.687500
	22009.566406	168013.000000
	23310.832031	172230.140625
	23542.769531	178398.281250
	21641.322266	172982.125000
	22206.791016	175288.593750
	22900.121094	182475.843750
	21912.105469	176885.609375
	21930.302734	161831.515625
	21795.166016	179166.671875
	21831.316406	170747.781250
	22213.080078	182123.843750
	24180.146484	173435.187500
	23514.455078	157678.328125
	23617.353516	166532.406250
	22254.099609	155911.812500
	23235.621094	168773.734375
	22824.343750	171235.437500
	22792.072266	172214.671875
	21910.234375	152079.515625
	22116.523438	166530.640625
	22507.072266	175147.250000
	21705.433594	177448.187500
	22583.802734	170175.453125
	22583.914062	163609.031250
	23930.099609	185528.015625
	21550.162109	170145.593750
	22449.537109	175203.609375
	22407.019531	170462.546875
	23487.673828	168382.250000
	22121.390625	162935.718750
	22778.375000	159882.578125
	21755.564453	172283.812500
	22227.691406	153777.453125
	22272.550781	182865.218750
	21940.849609	166156.000000
	23055.660156	166081.921875
	22880.673828	164579.875000
	22180.212891	180796.062500
	22017.396484	161935.953125
	22143.734375	173632.640625
	22011.611328	181927.968750
	21798.339844	161614.406250
	21477.392578	171766.171875
	21663.462891	178143.421875
	22586.646484	165749.781250
	23336.119141	178455.531250
	21702.828125	156037.734375
	22698.281250	173250.890625
	22420.666016	171887.000000
	24647.521484	172260.046875
	23840.890625	176727.375000
	21869.078125	159994.687500
	23109.953125	177542.750000
	24112.964844	165331.468750
	23172.423828	175324.281250
	22355.144531	181650.281250
	23437.175781	174989.843750
	21661.888672	178948.515625
	23204.939453	170607.093750
	22694.509766	156017.625000
	22912.587891	176547.359375
	23551.070312	160949.218750
	22176.458984	165597.765625
	22652.316406	174777.187500
	21569.976562	177043.734375
	23664.621094	163259.812500
	22072.369141	171054.546875
	22215.277344	174808.312500
	22205.371094	164202.546875
	22056.712891	178990.937500
	22382.103516	173099.218750
	22005.437500	174998.906250
	21763.603516	175857.875000
	22622.955078	173539.953125
	22654.785156	168452.031250
	21812.433594	174104.781250
	21945.027344	167934.078125
	23671.367188	166241.500000
	22550.232422	172002.921875
	22618.273438	174380.500000
	22052.605469	174256.765625
	22638.998047	187495.078125
	21651.419922	169497.375000
	22570.435547	178897.953125
	22550.347656	161341.593750
	23273.041016	179436.281250
	22858.583984	176425.640625
	22785.609375	158226.765625
	22047.935547	172912.109375
	21873.603516	183845.609375
	21905.666016	188376.234375
	23301.500000	158629.078125
	22072.216797	165822.640625
