81
140
144
75
49
111
93
1
126
147
101
121
13
5
120
123
82
113
77
96
10
108
145
134
33
35
25
85
86
74
23
105
63
73
0
44
122
69
28
89
115
137
128
61
15
100
80
4
42
114
55
2
149
12
143
117
19
110
18
21
60
30
51
107
116
90
26
94
32
109
118
48
38
102
99
106
130
53
97
139
112
65
70
125
43
36
14
11
6
58
135
129
20
71
148
17
119
78
141
22
124
39
67
52
47
37
72
136
98
56
88
133
138
146
16
59
3
27
132
92
50
9
66
76
79
142
7
64
91
57
131
40
103
45
29
127
8
46
68
95
31
83
62
34
41
104
24
84
87
54
