36
42
66
108
24
54
64
84
141
17
74
102
97
0
86
33
6
123
92
34
95
29
62
93
120
110
104
31
37
22
70
3
103
21
148
61
87
78
20
63
111
135
12
105
90
118
67
127
44
73
56
59
65
139
116
128
143
121
145
25
82
140
80
109
19
50
137
45
91
53
133
130
144
122
30
26
100
115
126
68
23
11
76
132
15
51
96
142
99
81
94
106
4
52
60
129
16
147
10
35
138
107
69
134
49
57
58
14
77
79
13
46
1
28
85
55
9
112
88
7
83
2
124
149
114
43
71
48
146
40
38
117
39
27
5
8
41
119
89
32
125
47
72
75
131
136
101
113
98
18
