7
72
71
74
55
3
53
79
67
23
28
77
8
19
31
89
61
6
5
93
94
100
27
75
49
0
26
59
82
17
68
80
32
13
43
37
85
15
11
76
2
78
50
29
9
87
51
88
91
97
99
36
96
1
73
21
40
56
14
42
41
86
12
57
52
25
39
20
22
66
38
24
54
33
34
70
64
65
69
30
92
84
90
60
16
44
83
4
98
58
95
81
47
48
63
62
10
18
46
35
45
