38
71
37
52
6
34
7
18
13
58
65
64
10
45
33
19
69
59
70
68
20
60
63
41
40
55
22
42
0
21
61
27
73
47
28
44
26
51
53
12
56
14
4
36
35
46
29
1
72
32
62
48
15
50
75
74
3
67
5
2
43
31
23
17
49
8
39
16
66
25
11
57
9
30
54
24
