42
0
55
22
62
50
16
39
11
25
27
60
68
20
46
4
18
13
10
65
58
53
12
56
14
26
51
49
17
23
48
15
2
43
8
38
71
9
57
6
34
52
37
64
30
54
24
31
5
67
44
28
29
1
32
72
73
47
36
19
69
59
70
35
74
75
66
7
45
33
3
61
21
63
41
40
