50
81
6
7
21
74
79
32
80
44
13
59
3
92
18
10
51
83
65
11
39
0
84
14
30
4
42
87
97
57
33
89
40
2
72
49
70
38
27
37
55
85
29
35
56
68
58
88
20
69
75
94
61
53
5
46
66
54
63
19
52
23
31
76
67
22
90
93
1
64
12
26
45
28
36
15
43
47
95
86
96
99
73
34
82
71
24
16
41
78
25
77
8
60
17
48
98
9
91
62
