18
91
54
8
95
85
56
71
60
45
51
7
65
37
80
33
10
88
69
48
97
96
31
93
22
73
35
28
57
21
41
68
15
9
94
55
27
11
74
66
6
25
86
47
1
99
29
50
36
34
92
3
70
72
40
16
89
75
79
30
98
77
14
83
23
26
49
0
87
12
78
38
2
82
39
17
13
67
32
44
64
62
53
90
76
81
46
20
19
24
5
58
84
63
42
43
59
52
4
61
