63
76
90
53
62
15
95
85
64
13
67
32
44
98
77
30
56
71
79
75
45
51
7
65
80
33
37
22
41
73
60
6
74
66
35
28
57
21
69
48
97
96
31
93
16
89
88
10
49
0
12
78
87
26
23
40
83
68
14
72
38
42
70
3
92
43
59
52
2
82
39
5
24
19
8
54
4
61
34
29
99
50
36
18
1
47
91
86
25
9
94
55
20
27
11
46
81
17
84
58
