67
66
63
62
61
104
58
55
54
49
47
44
48
39
103
43
46
50
53
56
57
52
51
45
42
40
41
36
35
25
24
17
16
15
18
23
26
32
27
22
19
102
29
30
31
28
21
20
14
10
9
6
5
1
0
2
11
7
8
4
3
12
13
33
34
37
38
59
60
64
65
86
87
93
94
99
98
97
89
88
80
74
73
69
68
72
75
79
85
92
101
100
96
95
91
90
84
82
81
77
83
78
76
71
70
