326
325
324
323
322
321
320
319
318
317
316
401
403
404
416
417
427
428
430
387
386
384
385
400
399
415
414
418
419
420
413
405
406
411
422
421
431
432
429
426
423
424
425
433
437
436
435
434
438
402
407
408
410
409
412
395
396
397
398
391
390
392
394
393
383
381
382
371
370
372
380
374
373
339
344
345
347
375
379
389
388
378
376
349
351
350
352
353
354
356
355
357
358
292
291
290
289
348
346
288
287
286
285
284
279
231
230
224
188
187
186
229
280
281
340
341
342
343
283
282
227
228
226
225
185
148
84
83
82
52
53
54
55
81
80
79
78
56
34
35
36
37
38
41
43
46
47
49
50
51
1
0
2
48
45
44
42
40
39
4
3
5
6
7
8
9
10
11
12
13
14
15
16
32
33
57
77
85
86
76
58
59
60
75
74
61
31
30
29
27
25
26
28
62
72
73
63
24
64
65
66
21
23
22
20
19
18
17
95
94
99
93
92
91
101
116
114
102
113
115
117
118
120
121
119
100
122
123
125
124
127
98
97
96
132
131
130
129
128
126
133
134
135
136
137
138
139
140
141
155
157
156
178
177
176
158
159
160
161
162
163
164
166
165
168
169
167
207
206
205
170
171
173
172
174
175
200
201
203
202
204
210
211
212
213
214
216
215
199
198
197
196
195
179
180
154
153
152
151
150
149
142
112
103
104
90
69
68
67
71
70
89
88
87
105
106
107
108
109
110
111
145
143
146
147
144
184
189
223
222
190
183
191
182
181
194
193
192
220
219
218
217
239
240
241
242
243
244
245
258
257
256
255
248
247
246
209
249
250
208
252
251
254
253
315
314
313
312
311
310
259
260
261
262
309
308
307
306
263
264
265
238
237
236
235
234
221
233
232
271
270
269
268
267
266
305
304
303
302
301
300
299
298
297
296
272
273
274
275
276
277
278
293
294
295
336
337
338
359
369
360
361
362
368
367
377
366
365
364
363
335
334
333
332
331
329
330
328
327
