87
83
30
65
75
57
58
94
76
92
27
36
18
45
49
72
55
91
26
9
32
2
3
31
77
19
73
25
8
11
84
13
81
74
20
48
66
96
62
85
14
61
17
0
59
7
68
89
50
82
67
70
86
12
63
35
56
46
98
52
5
78
93
97
15
44
51
99
43
28
34
95
38
54
39
6
33
40
21
4
60
10
80
79
64
47
29
90
41
42
24
23
22
1
88
53
37
71
16
69
